<?xml version="1.0" encoding="utf-8"?>
<!-- Generator: Adobe Illustrator 17.0.2, SVG Export Plug-In . SVG Version: 6.00 Build 0)  -->
<!DOCTYPE svg PUBLIC "-//W3C//DTD SVG 1.1//EN" "http://www.w3.org/Graphics/SVG/1.1/DTD/svg11.dtd">
<svg version="1.1" id="Layer_1" xmlns="http://www.w3.org/2000/svg" xmlns:xlink="http://www.w3.org/1999/xlink" x="0px" y="0px"
	 width="141.732px" height="141.732px" viewBox="0 0 141.732 141.732" enable-background="new 0 0 141.732 141.732"
	 xml:space="preserve">
<g>
	<g>
		<path fill-rule="evenodd" clip-rule="evenodd" fill="#B2B2B2" d="M117.834,57.725H25.048v16.088h92.786V57.725z M23.909,73.81
			l0.002,0.001V61.958H8.636l3.818,7.619l-3.818,8.466h29.182l-13.909-3.598V73.81z M134.636,61.958h-15.648v12.486h-0.006v0.001
			l-13.909,3.598h29.564l-3.818-8.466L134.636,61.958z M39.945,77.958v-3.514H26.361L39.945,77.958z M103.327,74.445v3.415
			l13.202-3.415H103.327z"/>
	</g>
</g>
</svg>
